; Engine configuration file.
; It's best edited using the editor UI and not directly,
; since the parameters that go here are not all obvious.
;
; Format:
;   [section] ; section goes between []
;   param=value ; assign values to parameters

config_version=5

[application]

config/name="Software Engineering Game"
run/main_scene="res://main_menu.tscn"
config/features=PackedStringArray("4.1", "GL Compatibility")
config/icon="res://icon.svg"

[autoload]

GUI="*res://GUI.gd"
LOADER="*res://LoadScene.tscn"

[display]

window/stretch/mode="canvas_items"

[dotnet]

project/assembly_name="Software Engineering Game"

[rendering]

textures/canvas_textures/default_texture_filter=0
renderer/rendering_method="gl_compatibility"
renderer/rendering_method.mobile="gl_compatibility"
